INDEX VERSION 1.130+C:\Users\91995\Desktop\FSD57\fsd57module4\1.SpringBoot\2.Workspace\.metadata\.plugins\org.eclipse.jdt.core
3253007093.index
588648042.index
308173042.index
2488121719.index
2342581541.index
3438074642.index
2729687994.index
1936365875.index
2861293048.index
3694821038.index
1520875255.index
4255597340.index
3965766969.index
2468112818.index
1113879724.index
674573568.index
3417838540.index
209864457.index
895354549.index
2066830214.index
1361058356.index
2115655095.index
1243140829.index
1956904976.index
233773402.index
497862198.index
2911327458.index
3412078192.index
1549176377.index
885581449.index
2065223993.index
1569280874.index
1592434468.index
769296719.index
1983673451.index
556685044.index
1696652897.index
657642516.index
4044791207.index
2800669982.index
4164079976.index
4178484268.index
3348520720.index
512642527.index
1946725198.index
2885606711.index
4135958314.index
542153213.index
534427298.index
3123700560.index
3231641020.index
921603165.index
3644761064.index
3254939746.index
2853507613.index
3168298254.index
1609715381.index
1827469980.index
2507423472.index
1190533993.index
3126663682.index
4119410998.index
4259073463.index
4138326577.index
1610204717.index
2173115300.index
2186899505.index
4014118998.index
2152937467.index
2097988749.index
11302499.index
1336450982.index
3015774635.index
1758525572.index
3143951572.index
411227453.index
2503774885.index
3835987656.index
2599385640.index
3739835593.index
1229623426.index
2229847987.index
1548169616.index
3040837599.index
1711515301.index
3606009242.index
2716845954.index
3041357611.index
887997976.index
103378668.index
4173931081.index
2548292955.index
624477746.index
2002817460.index
2163367880.index
1726198388.index
2661792584.index
2205283528.index
3086016776.index
3447804332.index
1961815414.index
3220400126.index
3313261634.index
